<svg width="22" height="19" viewBox="0 0 22 19" fill="none" xmlns="http://www.w3.org/2000/svg">
<path d="M17.8371 6.73831H20.3521C20.9261 6.73831 21.3911 7.20331 21.3911 7.77731C21.3911 8.35131 20.9261 8.81631 20.3521 8.81631H1.64813C1.07413 8.81631 0.609131 8.35131 0.609131 7.77731C0.609131 7.20331 1.07413 6.73831 1.64813 6.73831H4.16313L7.50413 0.890312C7.78913 0.392312 8.42413 0.218312 8.92213 0.503312C9.42013 0.788312 9.59313 1.42231 9.30913 1.92031L6.55613 6.73831H15.4441L12.6921 1.92131C12.4071 1.42331 12.5801 0.788312 13.0791 0.503312C13.5771 0.218312 14.2111 0.391313 14.4961 0.889313L17.8371 6.73831Z" fill="white"/>
<path d="M3.75053 18.1255L2.08453 10.6245H19.9155L18.2505 18.1245C18.1445 18.5995 17.7225 18.9375 17.2345 18.9375H4.76553C4.27753 18.9375 3.85553 18.6005 3.75053 18.1255Z" fill="white"/>
</svg>
