<svg width="24" height="17" viewBox="0 0 24 17" fill="none" xmlns="http://www.w3.org/2000/svg">
<path fill-rule="evenodd" clip-rule="evenodd" d="M21.3906 14.7666H2.60963C2.58163 14.7666 2.55763 14.7666 2.53963 14.6976C2.51663 14.6056 2.56063 14.5806 2.58463 14.5676L12.0236 9.4196L21.4136 14.5676C21.4386 14.5806 21.4826 14.6056 21.4586 14.6976C21.4416 14.7666 21.4166 14.7666 21.3906 14.7666ZM22.3126 12.9306L13.4916 8.0946C14.1196 7.8226 14.6716 7.3896 15.0746 6.8226C15.6816 5.9686 15.8896 4.9286 15.6556 3.8726C15.2686 2.3286 14.0946 1.1776 12.6546 0.9366C11.5206 0.7586 10.3806 1.0746 9.52563 1.8066C8.69263 2.5186 8.21463 3.5576 8.21463 4.6596C8.21463 5.1756 8.63263 5.5936 9.14863 5.5936C9.66363 5.5936 10.0816 5.1756 10.0816 4.6596C10.0816 4.0966 10.3156 3.5876 10.7386 3.2256C11.1776 2.8496 11.7716 2.6896 12.3556 2.7796C13.0536 2.8966 13.6376 3.5036 13.8376 4.3026C13.9516 4.8116 13.8496 5.3226 13.5526 5.7416C13.2446 6.1736 12.7706 6.4586 12.2436 6.5296C11.6226 6.5706 11.1536 7.0956 11.1206 7.7656C11.1066 7.7726 11.0916 7.7746 11.0776 7.7826L1.68663 12.9306H1.68563C0.88563 13.3706 0.50163 14.2666 0.73163 15.1616C0.95663 16.0416 1.71163 16.6336 2.60963 16.6336H21.3906C22.2866 16.6336 23.0416 16.0416 23.2676 15.1616C23.4966 14.2666 23.1136 13.3706 22.3126 12.9306Z" fill="white"/>
</svg>
