<svg width="15" height="19" viewBox="0 0 15 19" fill="none" xmlns="http://www.w3.org/2000/svg">
<path d="M5.79252 0.761292C5.79252 0.530292 5.97852 0.343292 6.20952 0.343292C6.40952 0.343292 6.58152 0.485292 6.61852 0.682292C6.80352 1.64729 7.31452 4.42629 7.31452 5.67329C7.31452 8.71829 5.03052 9.47929 5.03052 9.47929V17.4733C5.03052 18.1043 4.51952 18.6153 3.88852 18.6153C3.25752 18.6153 2.74652 18.1043 2.74652 17.4733V9.47929C2.74652 9.47929 0.462524 8.71829 0.462524 5.67329C0.462524 4.42629 0.972524 1.64729 1.15752 0.682292C1.19552 0.485292 1.36752 0.343292 1.56752 0.343292C1.79852 0.343292 1.98552 0.530292 1.98552 0.761292V5.18129C1.98552 5.45329 2.20452 5.67329 2.47652 5.67329C2.72652 5.67329 2.93652 5.48429 2.96452 5.23529L3.46652 0.715292C3.48952 0.503292 3.66852 0.343292 3.88152 0.343292H3.89552C4.10752 0.343292 4.28752 0.503292 4.31052 0.715292L4.81252 5.23529C4.84052 5.48429 5.05052 5.67329 5.30052 5.67329C5.57252 5.67329 5.79252 5.45329 5.79252 5.18129V0.761292Z" fill="white"/>
<path d="M12.7743 0.704292C12.9093 0.492292 13.1353 0.343292 13.4053 0.343292C13.8253 0.343292 14.1663 0.684292 14.1663 1.10529V17.4733C14.1663 18.1043 13.6553 18.6153 13.0253 18.6153C12.3933 18.6153 11.8833 18.1043 11.8833 17.4733V11.8073L10.8713 10.8253C10.5423 10.4483 10.3603 9.96429 10.3603 9.46329V7.95629C10.3603 4.19229 12.7633 0.697292 12.7633 0.697292L12.7743 0.704292Z" fill="white"/>
</svg>
