<svg width="20" height="19" viewBox="0 0 20 19" fill="none" xmlns="http://www.w3.org/2000/svg">
<path d="M15.9651 4.0439C16.2951 2.2279 15.4791 0.557898 14.1421 0.314898C12.8051 0.0718978 11.4531 1.3469 11.1231 3.1629C10.7921 4.9799 11.6091 6.6489 12.9461 6.8919C14.2831 7.1349 15.6351 5.8599 15.9651 4.0439Z" fill="white"/>
<path d="M18.7061 6.3467C19.7851 6.7277 20.2241 8.2697 19.6861 9.7907C19.1491 11.3127 17.8381 12.2367 16.7601 11.8557C15.6811 11.4747 15.2421 9.9327 15.7801 8.4107C16.3171 6.8897 17.6271 5.9657 18.7061 6.3467Z" fill="white"/>
<path d="M7.01342 10.6043C6.63246 11.1385 6.23831 11.6913 5.78992 12.1691C5.50363 12.474 5.20095 12.7473 4.90351 13.0158C4.36978 13.4977 3.85293 13.9643 3.47792 14.5711C2.25392 16.5511 3.17192 18.4281 5.24192 18.4671C6.23822 18.3858 7.00742 18.2175 7.70212 18.0655C8.44243 17.9035 9.09814 17.7601 9.85392 17.7601C10.5933 17.7601 11.4835 17.9399 12.3659 18.1182C13.2319 18.2931 14.0906 18.4666 14.7919 18.4671C17.1239 18.6021 17.2079 15.7051 16.5449 14.8181C16.1916 14.1662 15.7887 13.7886 15.338 13.3661C14.9583 13.0102 14.5446 12.6225 14.0979 12.0121C13.4534 11.1305 13.1616 10.6291 12.8679 10.1246C12.7146 9.86112 12.5607 9.59681 12.3559 9.2771C11.3699 7.8691 9.36992 7.9211 8.16892 9.1391C7.76906 9.54448 7.39795 10.065 7.01342 10.6043Z" fill="white"/>
<path d="M6.04592 0.522398C7.38892 0.273398 8.74992 1.5414 9.08492 3.3524C9.41992 5.1644 8.60292 6.8344 7.25892 7.0824C5.91592 7.3314 4.55492 6.0644 4.21992 4.2524C3.88492 2.4404 4.70292 0.771398 6.04592 0.522398Z" fill="white"/>
<path d="M0.502018 9.8734C-0.0689824 8.3774 0.341018 6.8314 1.41702 6.4204C2.49302 6.0094 3.82902 6.8894 4.39902 8.3854C4.97102 9.8814 4.56102 11.4274 3.48402 11.8384C2.40802 12.2494 1.07302 11.3694 0.502018 9.8734Z" fill="white"/>
</svg>
