<svg width="18" height="20" viewBox="0 0 18 20" fill="none" xmlns="http://www.w3.org/2000/svg">
<path fill-rule="evenodd" clip-rule="evenodd" d="M14.2212 17.7388C16.0932 17.7388 17.6172 16.2158 17.6172 14.3428V1.8118C17.6172 1.4018 17.4202 1.0088 17.0902 0.762798C16.7622 0.518798 16.3302 0.442798 15.9342 0.558798L5.49218 3.6918C4.94318 3.8558 4.56018 4.3718 4.56018 4.9448V13.1298L4.21118 13.0788C4.06218 13.0568 3.92018 13.0358 3.77918 13.0358C1.90618 13.0358 0.383179 14.5598 0.383179 16.4318C0.383179 18.3038 1.90618 19.8268 3.77918 19.8268C5.65118 19.8268 7.17418 18.3038 7.17418 16.4318V5.9158L15.0032 3.5678V11.0418L14.6532 10.9898C14.5042 10.9678 14.3632 10.9478 14.2212 10.9478C12.3482 10.9478 10.8252 12.4708 10.8252 14.3428C10.8252 16.2158 12.3482 17.7388 14.2212 17.7388Z" fill="white"/>
</svg>
