<svg width="19" height="23" viewBox="0 0 19 23" fill="none" xmlns="http://www.w3.org/2000/svg">
<path fill-rule="evenodd" clip-rule="evenodd" d="M10.4189 16.605C10.6409 16.937 10.6619 17.365 10.4729 17.718C10.2839 18.071 9.91689 18.291 9.51689 18.291H5.17589C4.77489 18.291 4.40689 18.071 4.21689 17.717C4.02789 17.364 4.04889 16.937 4.27189 16.604L5.36489 14.962C3.60289 13.573 0.832886 10.853 0.832886 7.438C0.832886 3.456 4.42589 0.297002 8.54089 1.034C10.8519 1.447 12.7869 3.165 13.5229 5.394C14.9599 9.756 11.4279 13.306 9.32389 14.963L10.4189 16.605ZM3.54289 7.438H4.62889C4.93089 7.438 5.17589 7.193 5.17589 6.892V6.353C5.17589 5.756 5.66389 5.268 6.26089 5.268H6.80789C7.10589 5.268 7.34589 5.026 7.34589 4.729V3.644C7.34589 3.342 7.10189 3.097 6.79989 3.097H6.26089C4.46289 3.097 3.00489 4.555 3.00489 6.353V6.9C3.00489 7.197 3.24589 7.438 3.54289 7.438Z" fill="white"/>
<path d="M13.2469 18.9375C13.5509 16.2745 14.7799 14.5845 17.5889 14.5845C17.9789 14.5845 18.3849 14.7035 18.3889 15.1775C18.3939 15.7855 18.0189 16.0495 17.1119 16.1205C15.9259 16.2135 15.0119 17.0855 14.9429 18.2725C14.8579 19.7235 14.3889 21.1585 13.1409 21.8975C10.4199 23.5055 7.66889 22.2805 6.66789 20.0905C6.51689 19.7595 6.76589 19.3785 7.12989 19.3785H7.90389C8.12489 19.3785 8.33089 19.4885 8.45989 19.6685C9.25489 20.7815 10.4579 21.8125 12.3259 20.7405C12.9999 20.3535 13.1659 19.6535 13.2469 18.9375Z" fill="white"/>
</svg>
