<svg width="22" height="18" viewBox="0 0 22 18" fill="none" xmlns="http://www.w3.org/2000/svg">
<path fill-rule="evenodd" clip-rule="evenodd" d="M1.85839 0.3885H20.1314C20.6724 0.3885 21.1104 0.8255 21.1104 1.3675V13.8595C21.1104 14.4005 20.6724 14.8385 20.1314 14.8385H1.85839C1.31739 14.8385 0.879395 14.4005 0.879395 13.8595V1.3675C0.879395 0.8255 1.31739 0.3885 1.85839 0.3885ZM15.4774 11.0825L17.7114 5.5865C17.9044 5.1115 17.6754 4.5675 17.2004 4.3745C16.9704 4.2805 16.7164 4.2815 16.4874 4.3785C16.2584 4.4755 16.0814 4.6555 15.9874 4.8855L14.6094 8.2765L13.2094 4.8805C13.0134 4.4075 12.4684 4.1815 11.9934 4.3755C11.5194 4.5715 11.2934 5.1165 11.4884 5.5905L13.7544 11.0865C13.8994 11.4365 14.2364 11.6615 14.6174 11.6615C14.9974 11.6605 15.3344 11.4335 15.4774 11.0825ZM8.31339 6.1665H9.61539C10.1284 6.1665 10.5454 5.7495 10.5454 5.2355C10.5454 4.7235 10.1284 4.3055 9.61539 4.3055H5.15039C4.63739 4.3055 4.21939 4.7235 4.21939 5.2355C4.21939 5.7495 4.63739 6.1665 5.15039 6.1665H6.45239V10.7315C6.45239 11.2445 6.87039 11.6615 7.38239 11.6615C7.89639 11.6615 8.31339 11.2445 8.31339 10.7315V6.1665Z" fill="white"/>
<path d="M5.87319 15.8306H16.1162C16.6572 15.8306 17.0952 16.2686 17.0952 16.8096C17.0952 17.3506 16.6572 17.7886 16.1162 17.7886H5.87319C5.33219 17.7886 4.89419 17.3506 4.89419 16.8096C4.89419 16.2686 5.33219 15.8306 5.87319 15.8306Z" fill="white"/>
</svg>
